…
``` r
dep_data <- dep_data %>%
    mutate(depth_designation = if_else(grepl(' - ', site),
                                     substr(site, nchar(site) - 3, nchar(site)),
                                     NA_character_),
         site = if_else(grepl(' - ', site),
                          substr(site, 1, nchar(site) - 5),
                          site)) %>%
  relocate(depth_designation, .after = site)
```

``` r
dep_data %>%
  filter(! is.na(depth_designation))
#> # A tibble: 277 x 40
#>    site_name      site  depth_designati~ Date                Time               
#>    <chr>          <chr> <chr>            <dttm>              <dttm>             
#>  1 BANDM RAILROA~ "BMR~ " SUR"           2018-05-10 00:00:00 1899-12-31 12:42:00
#>  2 BANDM RAILROA~ "BMR~ " SUR"           2018-05-31 00:00:00 1899-12-31 12:00:00
#>  3 BANDM RAILROA~ "BMR~ " SUR"           2018-05-31 00:00:00 1899-12-31 12:05:00
#>  4 BANDM RAILROA~ "BMR~ " SUR"           2018-06-25 00:00:00 1899-12-31 14:00:00
#>  5 BANDM RAILROA~ "BMR~ " SUR"           2018-07-18 00:00:00 1899-12-31 14:18:00
#>  6 BANDM RAILROA~ "BMR~ " SUR"           2018-07-18 00:00:00 1899-12-31 14:25:00
#>  7 BANDM RAILROA~ "BMR~ " SUR"           2018-08-08 00:00:00 1899-12-31 13:20:00
#>  8 BANDM RAILROA~ "BMR~ " SUR"           2018-08-30 00:00:00 1899-12-31 12:18:00
#>  9 BANDM RAILROA~ "BMR~ " SUR"           2018-09-20 00:00:00 1899-12-31 12:45:00
#> 10 BANDM RAILROA~ "BMR~ " SUR"           2018-09-20 00:00:00 1899-12-31 12:45:00
#> # ... with 267 more rows, and 35 more variables: dt <date>, month <fct>,
#> #   year <dbl>, time <chr>, hour <dbl>, Sample Type <chr>, QC Type <chr>,
#> #   Sampled By <chr>, depth <dbl>, Depth Unit <chr>, temp <dbl>,
#> #   salinity <chr>, ph <dbl>, pctsat <chr>, do <chr>, turbidity <chr>,
#> #   chl_a_sonde <chr>, chl_a <chr>, chl_less_phaeo <chr>, phaeo <chr>,
#> #   nox_n <chr>, nh4_n <chr>, tkn <chr>, tn <chr>, op_p <chr>, tp <chr>,
#> #   tss <chr>, secchi <chr>, irr_air <dbl>, irr_water <dbl>, irr_pct <dbl>,
#> #   Sample Comments <chr>, Validation Comments <chr>, Latitude <dbl>,
#> #   Longitude <dbl>
```
…
